%!PS-Adobe-2.0 EPSF-2.0
%%BoundingBox:  0 0 567 407
%%Title: chargeFlipCompare/chargeFlipRateEta.eps: c5
%%Creator: ROOT Version 6.04/16
%%CreationDate: Sat Oct 28 21:02:40 2017
%%DocumentNeededResources: ProcSet (FontSetInit)
%%EndComments
%%BeginProlog
80 dict begin
/s {stroke} def /l {lineto} def /m {moveto} def /t {translate} def
/r {rotate} def /rl {roll}  def /R {repeat} def
/d {rlineto} def /rm {rmoveto} def /gr {grestore} def /f {eofill} def
/c {setrgbcolor} def /black {0 setgray} def /sd {setdash} def
/cl {closepath} def /sf {scalefont setfont} def /lw {setlinewidth} def
/box {m dup 0 exch d exch 0 d 0 exch neg d cl} def
/NC{systemdict begin initclip end}def/C{NC box clip newpath}def
/bl {box s} def /bf {gsave box gsave f grestore 1 lw [] 0 sd s grestore} def /Y { 0 exch d} def /X { 0 d} def 
/K {{pop pop 0 moveto} exch kshow} bind def
/ita {/ang 15 def gsave [1 0 ang dup sin exch cos div 1 0 0] concat} def 
/mp {newpath /y exch def /x exch def} def
/side {[w .77 mul w .23 mul] .385 w mul sd w 0 l currentpoint t -144 r} def
/mr {mp x y w2 0 360 arc} def /m24 {mr s} def /m20 {mr f} def
/mb {mp x y w2 add m w2 neg 0 d 0 w neg d w 0 d 0 w d cl} def
/mt {mp x y w2 add m w2 neg w neg d w 0 d cl} def
/m21 {mb f} def /m25 {mb s} def /m22 {mt f} def /m26{mt s} def
/m23 {mp x y w2 sub m w2 w d w neg 0 d cl f} def
/m27 {mp x y w2 add m w3 neg w2 neg d w3 w2 neg d w3 w2 d cl s} def
/m28 {mp x w2 sub y w2 sub w3 add m w3 0 d  0 w3 neg d w3 0 d 0 w3 d w3 0 d  0 w3 d w3 neg 0 d 0 w3 d w3 neg 0 d 0 w3 neg d w3 neg 0 d cl s } def
/m29 {mp gsave x w2 sub y w2 add w3 sub m currentpoint t 4 {side} repeat cl fill gr} def
/m30 {mp gsave x w2 sub y w2 add w3 sub m currentpoint t 4 {side} repeat cl s gr} def
/m31 {mp x y w2 sub m 0 w d x w2 sub y m w 0 d x w2 sub y w2 add m w w neg d x w2 sub y w2 sub m w w d s} def
/m32 {mp x y w2 sub m w2 w d w neg 0 d cl s} def
/m33 {mp x y w2 add m w3 neg w2 neg d w3 w2 neg d w3 w2 d cl f} def
/m34 {mp x w2 sub y w2 sub w3 add m w3 0 d  0 w3 neg d w3 0 d 0 w3 d w3 0 d  0 w3 d w3 neg 0 d 0 w3 d w3 neg 0 d 0 w3 neg d w3 neg 0 d cl f } def
/m2 {mp x y w2 sub m 0 w d x w2 sub y m w 0 d s} def
/m5 {mp x w2 sub y w2 sub m w w d x w2 sub y w2 add m w w neg d s} def
%%IncludeResource: ProcSet (FontSetInit)
%%IncludeResource: font Times-Roman
%%IncludeResource: font Times-Italic
%%IncludeResource: font Times-Bold
%%IncludeResource: font Times-BoldItalic
%%IncludeResource: font Helvetica
%%IncludeResource: font Helvetica-Oblique
%%IncludeResource: font Helvetica-Bold
%%IncludeResource: font Helvetica-BoldOblique
%%IncludeResource: font Courier
%%IncludeResource: font Courier-Oblique
%%IncludeResource: font Courier-Bold
%%IncludeResource: font Courier-BoldOblique
%%IncludeResource: font Symbol
%%IncludeResource: font ZapfDingbats
/reEncode {exch findfont dup length dict begin {1 index /FID eq  {pop pop} {def} ifelse } forall /Encoding exch def currentdict end dup /FontName get exch definefont pop } def [/Times-Bold /Times-Italic /Times-BoldItalic /Helvetica /Helvetica-Oblique
 /Helvetica-Bold /Helvetica-BoldOblique /Courier /Courier-Oblique /Courier-Bold /Courier-BoldOblique /Times-Roman /AvantGarde-Book /AvantGarde-BookOblique /AvantGarde-Demi /AvantGarde-DemiOblique /Bookman-Demi /Bookman-DemiItalic /Bookman-Light
 /Bookman-LightItalic /Helvetica-Narrow /Helvetica-Narrow-Bold /Helvetica-Narrow-BoldOblique /Helvetica-Narrow-Oblique /NewCenturySchlbk-Roman /NewCenturySchlbk-Bold /NewCenturySchlbk-BoldItalic /NewCenturySchlbk-Italic /Palatino-Bold
 /Palatino-BoldItalic /Palatino-Italic /Palatino-Roman ] {ISOLatin1Encoding reEncode } forall
%%EndProlog
%%BeginSetup
%%EndSetup
newpath  gsave  .25 .25 scale  gsave  0 0 t black[  ] 0 sd 3 lw 1 1 1 c 2268 1630 0 0 bf black 1 1 1 c 1791 1287 363 261 bf black 1791 1287 363 261 bl 1 1 1 c 1791 1287 363 261 bf black 1791 1287 363 261 bl 363 261 m 1791 X s
 gsave  2268 1630 0 0 C 2139.52 56.9778 t 0 r /Helvetica findfont 76.92 sf 0 0 m (|) show NC gr 
 gsave  2268 1630 0 0 C 2096.78 56.9778 t 0 r /Symbol findfont 76.92 sf 0 0 m (h) show NC gr 
 gsave  2268 1630 0 0 C 1928.7 56.9778 t 0 r /Helvetica findfont 76.92 sf 0 0 m (true |) show NC gr  444 299 m -38 Y s 509 280 m -19 Y s 575 280 m -19 Y s 640 280 m -19 Y s 705 280 m -19 Y s 770 299 m -38 Y s 835 280 m -19 Y s 900 280 m -19 Y s 965
 280 m -19 Y s 1031 280 m -19 Y s 1096 299 m -38 Y s 1161 280 m -19 Y s 1226 280 m -19 Y s 1291 280 m -19 Y s 1356 280 m -19 Y s 1421 299 m -38 Y s 1487 280 m -19 Y s 1552 280 m -19 Y s 1617 280 m -19 Y s 1682 280 m -19 Y s 1747 299 m -38 Y s 1812
 280 m -19 Y s 1877 280 m -19 Y s 1943 280 m -19 Y s 2008 280 m -19 Y s 2073 299 m -38 Y s 444 299 m -38 Y s 379 280 m -19 Y s 2073 299 m -38 Y s 2138 280 m -19 Y s
 gsave  2268 1630 0 0 C 421.636 188.027 t 0 r /Helvetica findfont 76.92 sf 0 0 m (0) show NC gr 
 gsave  2268 1630 0 0 C 715.071 188.027 t 0 r /Helvetica findfont 76.92 sf 0 0 m (0.5) show NC gr 
 gsave  2268 1630 0 0 C 1079.73 188.027 t 0 r /Helvetica findfont 76.92 sf 0 0 m (1) show NC gr 
 gsave  2268 1630 0 0 C 1364.62 188.027 t 0 r /Helvetica findfont 76.92 sf 0 0 m (1.5) show NC gr 
 gsave  2268 1630 0 0 C 1726.43 188.027 t 0 r /Helvetica findfont 76.92 sf 0 0 m (2) show NC gr 
 gsave  2268 1630 0 0 C 2017.01 188.027 t 0 r /Helvetica findfont 76.92 sf 0 0 m (2.5) show NC gr  363 1548 m 1791 X s 444 1509 m 39 Y s 509 1529 m 19 Y s 575 1529 m 19 Y s 640 1529 m 19 Y s 705 1529 m 19 Y s 770 1509 m 39 Y s 835 1529 m 19 Y s 900
 1529 m 19 Y s 965 1529 m 19 Y s 1031 1529 m 19 Y s 1096 1509 m 39 Y s 1161 1529 m 19 Y s 1226 1529 m 19 Y s 1291 1529 m 19 Y s 1356 1529 m 19 Y s 1421 1509 m 39 Y s 1487 1529 m 19 Y s 1552 1529 m 19 Y s 1617 1529 m 19 Y s 1682 1529 m 19 Y s 1747
 1509 m 39 Y s 1812 1529 m 19 Y s 1877 1529 m 19 Y s 1943 1529 m 19 Y s 2008 1529 m 19 Y s 2073 1509 m 39 Y s 444 1509 m 39 Y s 379 1529 m 19 Y s 2073 1509 m 39 Y s 2138 1529 m 19 Y s 363 261 m 1287 Y s
 gsave  2268 1630 0 0 C 128.2 817.631 t 90 r /Helvetica findfont 76.92 sf 0 0 m (charge\255flip probability) show NC gr  417 261 m -54 X s
 gsave  2268 1630 0 0 C 313.378 259.249 t 0 r /Helvetica findfont 51.28 sf 0 0 m (4) show NC gr 
 gsave  2268 1630 0 0 C 284.889 259.249 t 0 r /Symbol findfont 51.28 sf 0 0 m (-) show NC gr 
 gsave  2268 1630 0 0 C 202.271 225.062 t 0 r /Helvetica findfont 76.92 sf 0 0 m (10) show NC gr  390 338 m -27 X s 390 384 m -27 X s 390 416 m -27 X s 390 441 m -27 X s 390 461 m -27 X s 390 478 m -27 X s 390 493 m -27 X s 390 506 m -27 X s 417 518
 m -54 X s
 gsave  2268 1630 0 0 C 313.378 518.498 t 0 r /Helvetica findfont 51.28 sf 0 0 m (3) show NC gr 
 gsave  2268 1630 0 0 C 284.889 518.498 t 0 r /Symbol findfont 51.28 sf 0 0 m (-) show NC gr 
 gsave  2268 1630 0 0 C 202.271 481.462 t 0 r /Helvetica findfont 76.92 sf 0 0 m (10) show NC gr  390 596 m -27 X s 390 641 m -27 X s 390 673 m -27 X s 390 698 m -27 X s 390 719 m -27 X s 390 736 m -27 X s 390 751 m -27 X s 390 764 m -27 X s 417 776
 m -54 X s
 gsave  2268 1630 0 0 C 313.378 774.898 t 0 r /Helvetica findfont 51.28 sf 0 0 m (2) show NC gr 
 gsave  2268 1630 0 0 C 284.889 774.898 t 0 r /Symbol findfont 51.28 sf 0 0 m (-) show NC gr 
 gsave  2268 1630 0 0 C 202.271 740.711 t 0 r /Helvetica findfont 76.92 sf 0 0 m (10) show NC gr  390 853 m -27 X s 390 899 m -27 X s 390 931 m -27 X s 390 956 m -27 X s 390 976 m -27 X s 390 993 m -27 X s 390 1008 m -27 X s 390 1021 m -27 X s 417
 1033 m -54 X s
 gsave  2268 1630 0 0 C 321.925 1031.3 t 0 r /Helvetica findfont 51.28 sf 0 0 m (1) show NC gr 
 gsave  2268 1630 0 0 C 293.436 1031.3 t 0 r /Symbol findfont 51.28 sf 0 0 m (-) show NC gr 
 gsave  2268 1630 0 0 C 210.818 997.112 t 0 r /Helvetica findfont 76.92 sf 0 0 m (10) show NC gr  390 1111 m -27 X s 390 1156 m -27 X s 390 1188 m -27 X s 390 1213 m -27 X s 390 1233 m -27 X s 390 1251 m -27 X s 390 1266 m -27 X s 390 1279 m -27 X s
 417 1291 m -54 X s
 gsave  2268 1630 0 0 C 342.425 1258.71 t 0 r  -42 0 t /Helvetica findfont 76.92 sf 0 0 m (1) show NC gr  390 1368 m -27 X s 390 1413 m -27 X s 390 1446 m -27 X s 390 1471 m -27 X s 390 1491 m -27 X s 390 1508 m -27 X s 390 1523 m -27 X s 390 1536 m
 -27 X s 417 1548 m -54 X s
 gsave  2268 1630 0 0 C 342.425 1516.18 t 0 r  -84 0 t /Helvetica findfont 76.92 sf 0 0 m (10) show NC gr  2154 261 m 1287 Y s 2101 261 m 53 X s 2127 338 m 27 X s 2127 384 m 27 X s 2127 416 m 27 X s 2127 441 m 27 X s 2127 461 m 27 X s 2127 478 m 27 X
 s 2127 493 m 27 X s 2127 506 m 27 X s 2101 518 m 53 X s 2127 596 m 27 X s 2127 641 m 27 X s 2127 673 m 27 X s 2127 698 m 27 X s 2127 719 m 27 X s 2127 736 m 27 X s 2127 751 m 27 X s 2127 764 m 27 X s 2101 776 m 53 X s 2127 853 m 27 X s 2127 899 m 27
 X s 2127 931 m 27 X s 2127 956 m 27 X s 2127 976 m 27 X s 2127 993 m 27 X s 2127 1008 m 27 X s 2127 1021 m 27 X s 2101 1033 m 53 X s 2127 1111 m 27 X s 2127 1156 m 27 X s 2127 1188 m 27 X s 2127 1213 m 27 X s 2127 1233 m 27 X s 2127 1251 m 27 X s
 2127 1266 m 27 X s 2127 1279 m 27 X s 2101 1291 m 53 X s 2127 1368 m 27 X s 2127 1413 m 27 X s 2127 1446 m 27 X s 2127 1471 m 27 X s 2127 1491 m 27 X s 2127 1508 m 27 X s 2127 1523 m 27 X s 2127 1536 m 27 X s 2101 1548 m 53 X s 693 674 m -249 X s
 444 674 m cl s 716 674 m 249 X s 965 674 m cl s 1140 759 m -175 X s 965 759 m cl s 1162 759 m 175 X s 1337 759 m cl s 1374 844 m -37 X s 1337 844 m cl s 1397 844 m 37 X s 1434 844 m cl s 1710 926 m -276 X s 1434 926 m cl s 1733 926 m 275 X s 2008
 926 m cl s 2029 1011 m -21 X s 2008 1011 m cl s 2052 1011 m 21 X s 2073 1011 m cl s 0.95 0.95 0.95 c black /w 27 def /w2 {w 2 div} def /w3 {w 3 div} def 705 674 1151 759 1386 844 1721 926 2040 1011 5 { m20} R 1 0 0 c 693 512 m -249 X s 444 512 m cl
 s 716 512 m 249 X s 965 512 m cl s 705 524 m 14 Y s 705 538 m cl s 705 501 m -15 Y s 705 486 m cl s 1140 605 m -175 X s 965 605 m cl s 1162 605 m 175 X s 1337 605 m cl s 1151 616 m 9 Y s 1151 625 m cl s 1151 593 m -9 Y s 1151 584 m cl s 1374 657 m
 -37 X s 1337 657 m cl s 1397 657 m 37 X s 1434 657 m cl s 1386 668 m 21 Y s 1386 689 m cl s 1386 646 m -22 Y s 1386 624 m cl s 1710 785 m -276 X s 1434 785 m cl s 1733 785 m 275 X s 2008 785 m cl s 2029 828 m -21 X s 2008 828 m cl s 2052 828 m 21 X
 s 2073 828 m cl s 2040 840 m 7 Y s 2040 847 m cl s 2040 817 m -8 Y s 2040 809 m cl s 0.95 0.95 0.95 c 1 0 0 c 705 512 1151 605 1386 657 1721 785 2040 828 5 { m20} R 0 0 1 c 693 499 m -249 X s 444 499 m cl s 716 499 m 249 X s 965 499 m cl s 705 510 m
 28 Y s 705 538 m cl s 705 487 m -30 Y s 705 457 m cl s 1140 626 m -175 X s 965 626 m cl s 1162 626 m 175 X s 1337 626 m cl s 1151 638 m 14 Y s 1151 652 m cl s 1151 615 m -15 Y s 1151 600 m cl s 1374 610 m -37 X s 1337 610 m cl s 1397 610 m 37 X s
 1434 610 m cl s 1386 621 m 47 Y s 1386 668 m cl s 1386 599 m -52 Y s 1386 547 m cl s 1710 800 m -276 X s 1434 800 m cl s 1733 800 m 275 X s 2008 800 m cl s 2029 831 m -21 X s 2008 831 m cl s 2052 831 m 21 X s 2073 831 m cl s 2040 843 m 15 Y s 2040
 858 m cl s 2040 820 m -17 Y s 2040 803 m cl s 0.95 0.95 0.95 c 0 0 1 c 705 499 1151 626 1386 610 1721 800 2040 831 5 { m20} R black
 gsave  2268 1630 0 0 C 566.929 1296.24 t 0 r /Helvetica findfont 68.3734 sf 0 0 m (Run 2 LHC) show NC gr  510 1286 m 62 Y s 510 1317 m20
 gsave  2268 1630 0 0 C 1031.3 1190.84 t 0 r /Helvetica findfont 68.3734 sf 0 0 m (> = 200) show NC gr 
 gsave  2268 1630 0 0 C 991.414 1190.84 t 0 r /Symbol findfont 68.3734 sf 0 0 m (m) show NC gr 
 gsave  2268 1630 0 0 C 566.929 1190.84 t 0 r /Helvetica findfont 68.3734 sf 0 0 m (ITk Inclined, <) show NC gr  1 0 0 c 510 1183 m 62 Y s 510 1214 m20 black
 gsave  2268 1630 0 0 C 1031.3 1088.28 t 0 r /Helvetica findfont 68.3734 sf 0 0 m (> = 60) show NC gr 
 gsave  2268 1630 0 0 C 991.414 1088.28 t 0 r /Symbol findfont 68.3734 sf 0 0 m (m) show NC gr 
 gsave  2268 1630 0 0 C 566.929 1088.28 t 0 r /Helvetica findfont 68.3734 sf 0 0 m (ITk Inclined, <) show NC gr  0 0 1 c 510 1080 m 62 Y s 510 1111 m20 black
 gsave  2268 1630 0 0 C 452.974 1401.65 t 0 r /Helvetica-BoldOblique findfont 76.92 sf 0 0 m (ATLAS) show NC gr 
 gsave  2268 1630 0 0 C 729.316 1401.65 t 0 r /Helvetica findfont 76.92 sf 0 0 m (simulation internal) show NC gr 
 gsave  2268 1630 0 0 C 1666.6 1401.65 t 0 r /Helvetica findfont 76.92 sf 0 0 m ( > 25 GeV) show NC gr 
 gsave  2268 1630 0 0 C 1635.26 1378.86 t 0 r /Helvetica findfont 51.28 sf 0 0 m (T) show NC gr 
 gsave  2268 1630 0 0 C 1586.83 1401.65 t 0 r /Helvetica findfont 76.92 sf 0 0 m (E) show NC gr 
 gr  gr showpage
end
%%EOF
